G0 F25 Z5
G0 X27.5Y111.5
G0 Z3
G0 Y83.5
G0 X14.5
G0 Y27.5
G0 X27.5
G0 Y-1.5
G0 X-1.5
G0 Y27.5
G0 X10.5
G0 Y83.5
G0 X-1.5
G0 Y111.5
G0 X27.5
G0 Z2
G0 Y83.5
G0 X14.5
G0 Y27.5
G0 X27.5
G0 Y-1.5
G0 X-1.5
G0 Y27.5
G0 X10.5
G0 Y83.5
G0 X-1.5
G0 Y111.5
G0 X27.5
G0 Z1
G0 Y83.5
G0 X14.5
G0 Y27.5
G0 X27.5
G0 Y-1.5
G0 X-1.5
G0 Y27.5
G0 X10.5
G0 Y83.5
G0 X-1.5
G0 Y111.5
G0 X27.5
G0 Z5
G0 X10Y100