G1 Z5 F100
G1 X795.2 Y419.3
G0 Z0 F50
G0 X723.2 Y534.6
G0 X708.9 Y725.8
G1 Z5 
G1 X972.7 Y341.0
G0 Z0
G0 X795.2 Y419.3
G0 X708.9 Y725.8
G0 X833.1 Y834.7
G0 X972.7 Y903.0 
G0 X1150.2 Y824.5
G0 X1222.4 Y409.1
G0 X1112.4 Y409.1 
G0 X795.2 Y419.3
G0 X949.3 Y648.3 
G0 X708.9 Y725.8
G1 Z5
G1 X1236.5 Y518.1
G0 Z0 
G0 X1112.4 Y409.1
G0 X972.7 Y341.0
G1 Z5
G1 X708.9 Y725.8
G0 Z0 
G0 X972.7 Y903
G0 X1222.1 Y709.3
G0 X1236.5 Y518.1
G1 Z5
G1 X949.3 Y648.3
G0 Z0
G0 X1222.1 Y709.3
G1 Z5
G1 X1112.4 Y409.1
G0 Z0
G0 X949.3 Y648.3
G0 X972.7 Y903 
G1 Z5
G1 X1300 Y1000