G0 Z5.0000 F100
G0 X87.7230Y8.0230
G1 Z0.0000 F50
G1 X0.9540Y126.8930
G0 Z5.0000
G0 X0.9540Y126.8930
G1 Z0.0000
G1 X29.2600Y54.1250
G1 X87.6220Y8.0230
G1 X87.7230Y8.0230
G0 Z5.0000
G0 X87.7230Y8.0230
G1 Z0.0000
G1 X87.7320Y8.0230
G1 X91.6956Y21.1580
G0 Z5.0000
G0 X91.6956Y21.1580
G1 Z0.0000
G1 X123.4990Y126.5520
G1 X123.4990Y126.5606
G0 Z5.0000
G0 X123.4990Y126.5606
G1 Z0.0000
G1 X91.6956Y21.1580
G0 Z5.0000
G0 X91.6956Y21.1580
G1 Z0.0000
G1 X87.7323Y8.0228
G0 Z5.0000
G0 X87.7323Y8.0228
G1 Z0.0000
G1 X169.6749Y9.3584
G1 X227.8618Y53.8484
G0 Z5.0000
G0 X227.8618Y53.8484
G1 Z0.0000
G1 X87.7323Y8.0228
G0 Z5.0000
G0 X123.4990Y126.5606
G1 Z0.0000
G1 X123.4997Y126.5611
G0 Z5.0000
G0 X123.4997Y126.5611
G1 Z0.0000
G1 X123.5012Y126.5600
G0 Z5.0000
G0 X123.5012Y126.5600
G1 Z0.0000
G1 X123.5000Y126.5600
G1 X123.4997Y126.5611
G0 Z5.0000
G0 X123.4997Y126.5611
G1 Z0.0000
G1 X93.7777Y223.2278
G0 Z5.0000
G0 X93.7777Y223.2278
G1 Z0.0000
G1 X86.5717Y246.6659
G0 Z5.0000
G0 X86.5717Y246.6659
G1 Z0.0000
G1 X86.5713Y246.6656
G0 Z5.0000
G0 X86.5713Y246.6656
G1 Z0.0000
G1 X86.4979Y246.6105
G0 Z5.0000
G0 X86.4979Y246.6105
G1 Z0.0000
G1 X0.9907Y127.1050
G0 Z5.0000
G0 X0.9907Y127.1050
G1 Z0.0000
G1 X0.9906Y127.1048
G0 Z5.0000
G0 X0.9906Y127.1048
G1 Z0.0000
G1 X86.4979Y246.6105
G0 Z5.0000
G0 X86.4979Y246.6105
G1 Z0.0000
G1 X28.2465Y201.8719
G1 X0.9907Y127.1050
G0 Z5.0000
G0 X0.9907Y127.1050
G1 Z0.0000
G1 X0.9630Y127.0220
G1 X7.7722Y126.9995
G0 Z5.0000
G0 X7.7722Y126.9995
G1 Z0.0000
G1 X0.9630Y127.0220
G1 X0.9350Y126.9390
G1 X0.9540Y126.8930
G0 Z5.0000
G0 X7.7722Y126.9995
G1 Z0.0000
G1 X123.4807Y126.6170
G0 Z5.0000
G0 X123.4807Y126.6170
G1 Z0.0000
G1 X7.7722Y126.9995
G0 Z5.0000
G0 X123.4807Y126.6170
G1 Z0.0000
G1 X123.4810Y126.6170
G0 Z5.0000
G0 X123.4810Y126.6170
G1 Z0.0000
G1 X123.4990Y126.5606
G0 Z5.0000
G0 X123.5012Y126.5600
G1 Z0.0000
G1 X205.3440Y69.7019
G0 Z5.0000
G0 X205.3440Y69.7019
G1 Z0.0000
G1 X123.5100Y126.5600
G0 Z5.0000
G0 X123.5100Y126.5600
G1 Z0.0000
G1 X227.0000Y201.4800
G0 Z5.0000
G0 X227.0000Y201.4800
G1 Z0.0000
G1 X226.9900Y201.5000
G1 X226.9018Y201.5686
G0 Z5.0000
G0 X226.9018Y201.5686
G1 Z0.0000
G1 X201.5364Y209.7327
G0 Z5.0000
G0 X201.5364Y209.7327
G1 Z0.0000
G1 X226.9000Y201.5700
G1 X226.9018Y201.5686
G0 Z5.0000
G0 X226.9018Y201.5686
G1 Z0.0000
G1 X226.9039Y201.5680
G1 X168.2011Y247.8725
G0 Z5.0000
G0 X168.2011Y247.8725
G1 Z0.0000
G1 X86.6730Y246.7027
G1 X201.5364Y209.7327
G0 Z5.0000
G0 X201.5364Y209.7327
G1 Z0.0000
G1 X86.6700Y246.7000
G1 X86.6300Y246.7000
G1 X86.5700Y246.6700
G0 Z5.0000
G0 X86.5700Y246.6700
G1 Z0.0000
G1 X86.5713Y246.6656
G0 Z5.0000
G0 X86.5713Y246.6656
G1 Z0.0000
G1 X93.7777Y223.2278
G0 Z5.0000
G0 X93.7777Y223.2278
G1 Z0.0000
G1 X123.4807Y126.6170
G0 Z5.0000
G0 X123.5012Y126.5600
G1 Z0.0000
G1 X123.5100Y126.5600
G0 Z5.0000
G0 X205.3440Y69.7019
G1 Z0.0000
G1 X227.8979Y54.0315
G0 Z5.0000
G0 X227.8979Y54.0315
G1 Z0.0000
G1 X227.8982Y53.9686
G0 Z5.0000
G0 X227.8982Y53.9686
G1 Z0.0000
G1 X227.8982Y53.8944
G1 X227.8892Y53.8670
G1 X227.8618Y53.8484
G0 Z5.0000
G0 X227.8982Y53.9686
G1 Z0.0000
G1 X227.8987Y53.8944
G1 X255.3111Y129.1221
G1 X227.0236Y201.4114
G0 Z5.0000
G0 X227.0236Y201.4114
G1 Z0.0000
G1 X227.5750Y108.4543
G0 Z5.0000
G0 X227.5750Y108.4543
G1 Z0.0000
G1 X227.8979Y54.0332
G0 Z5.0000
G0 X227.8979Y54.0332
G1 Z0.0000
G1 X227.8979Y54.0315
G0 Z5.0000
G0 X227.8979Y54.0315
G1 Z0.0000
G1 X227.8982Y54.0312
G0 Z5.0000
G0 X227.8982Y54.0312
G1 Z0.0000
G1 X227.8982Y53.9686
G0 Z5.0000
G0 X227.8982Y54.0312
G1 Z0.0000
G1 X227.9000Y54.0300
G1 X227.5750Y108.4543
G0 Z5.0000
G0 X227.5750Y108.4543
G1 Z0.0000
G1 X227.0200Y201.4100
G1 X227.0000Y201.4800
G0 Z5.0000
G0 X205.3440Y69.7019
G1 Z0.0000
G1 X227.8979Y54.0332
G0 Z5.0000
G0 X227.8979Y54.0332
G1 Z0.0000
G1 X227.8987Y54.0326
G0 Z5.0000
G0 X227.8987Y54.0326
G1 Z0.0000
G1 X227.8982Y54.0312
G0 Z5.0000
G0 Z5.0000
G0 X0Y0
M05
