G0 X100
G0 Y5
G0 X200
G0 Y0
G0 X0
G0 Y5
G0 X100
G0 Y0
G0 X200
G0 X0
G0 X100
G0 Y5
G0 X200
G0 Y0
G0 X0
G0 Y5
G0 X100
G0 Y0
G0 X200
G0 X0
G0 X100
G0 Y5
G0 X200
G0 Y0
G0 X0
G0 Y5
G0 X100
G0 Y0
G0 X200
G0 X0