{
  "description": {
    "name": "new program",
    "counter": 16
  },
  "modules": {
    "SerialportATKLink-0": {
      "description": {
        "isHardware": true,
        "isLink": true,
        "name": "SerialportATKLink",
        "alt": "window into hardware world",
        "id": "SerialportATKLink-0",
        "path": "./modules/hardware/atkseriallink.js",
        "position": {
          "left": 734,
          "top": -191
        }
      },
      "inputs": {},
      "outputs": {},
      "state": {
        "portName": "---",
        "portStatus": "closed",
        "log": true
      },
      "ui": {
        "kickButton": {
          "type": "button",
          "clientPath": "ui/uiButton.js"
        }
      }
    },
    "atk-math-robot-joint-1": {
      "description": {
        "name": "atk-math-robot-joint",
        "alt": "software representation of networked hardware object",
        "isHardware": true,
        "id": "atk-math-robot-joint-1",
        "path": "./modules/hardware/atkmrobot.js",
        "position": {
          "left": 600,
          "top": 50
        }
      },
      "inputs": {
        "tick": {
          "accepts": "event"
        },
        "set_pc_t": {
          "accepts": "number"
        },
        "get_pos": {
          "accepts": "event"
        }
      },
      "outputs": {
        "ok": {
          "emits": "nothing-yet",
          "calls": []
        },
        "pos": {
          "emits": "uint16_t",
          "calls": [
            {
              "parentId": "logger-6",
              "key": "thru"
            },
            {
              "parentId": "gateCounter-9",
              "key": "thru"
            },
            {
              "parentId": "forwardTransform Parser-15",
              "key": "theta1"
            }
          ]
        }
      },
      "state": {
        "message": "no packet yet",
        "route": "0,0",
        "enc_cnt": 16384,
        "enc_offset": 13390,
        "enc_reverse": true,
        "pc_r": 0,
        "pc_t": 2048,
        "pKp": 4.5,
        "pKi": 0,
        "pKd": 0,
        "cKp": 4,
        "cKi": 0,
        "walk": 1024
      },
      "ui": {
        "walkValButton": {
          "type": "button",
          "clientPath": "ui/uiButton.js"
        }
      }
    },
    "atk-math-robot-joint-2": {
      "description": {
        "name": "atk-math-robot-joint",
        "alt": "software representation of networked hardware object",
        "isHardware": true,
        "id": "atk-math-robot-joint-2",
        "path": "./modules/hardware/atkmrobot.js",
        "position": {
          "left": 596,
          "top": 515
        }
      },
      "inputs": {
        "tick": {
          "accepts": "event"
        },
        "set_pc_t": {
          "accepts": "number"
        },
        "get_pos": {
          "accepts": "event"
        }
      },
      "outputs": {
        "ok": {
          "emits": "nothing-yet",
          "calls": []
        },
        "pos": {
          "emits": "uint16_t",
          "calls": [
            {
              "parentId": "gateCounter-12",
              "key": "thru"
            },
            {
              "parentId": "logger-14",
              "key": "thru"
            },
            {
              "parentId": "forwardTransform Parser-15",
              "key": "theta2"
            }
          ]
        }
      },
      "state": {
        "message": "no packet yet",
        "route": "0,1",
        "enc_cnt": 16384,
        "enc_offset": 1700,
        "enc_reverse": false,
        "pc_r": 0,
        "pc_t": 2048,
        "pKp": 4.5,
        "pKi": 0,
        "pKd": 0,
        "cKp": 4,
        "cKi": 0,
        "walk": 1024
      },
      "ui": {
        "walkValButton": {
          "type": "button",
          "clientPath": "ui/uiButton.js"
        }
      }
    },
    "Button-3": {
      "description": {
        "name": "Button",
        "alt": "for clicking",
        "id": "Button-3",
        "path": "./modules/ui/button.js",
        "position": {
          "left": 90,
          "top": 50
        }
      },
      "inputs": {
        "thru": {
          "accepts": "any"
        }
      },
      "outputs": {
        "whammy": {
          "emits": "number",
          "calls": [
            {
              "parentId": "atk-math-robot-joint-1",
              "key": "get_pos"
            },
            {
              "parentId": "delay-4",
              "key": "thru"
            },
            {
              "parentId": "atk-math-robot-joint-2",
              "key": "get_pos"
            }
          ]
        }
      },
      "state": {},
      "ui": {
        "btn": {
          "type": "button",
          "clientPath": "ui/uiButton.js"
        }
      }
    },
    "delay-4": {
      "description": {
        "name": "delay",
        "alt": "in ... out",
        "id": "delay-4",
        "path": "./modules/util/delay.js",
        "position": {
          "left": 90,
          "top": 250
        }
      },
      "inputs": {
        "thru": {
          "accepts": "any"
        }
      },
      "outputs": {
        "out": {
          "emits": "any",
          "calls": [
            {
              "parentId": "gate-5",
              "key": "thru"
            }
          ]
        }
      },
      "state": {
        "ms": 100
      },
      "ui": {}
    },
    "gate-5": {
      "description": {
        "name": "gate",
        "alt": "in ... out",
        "id": "gate-5",
        "path": "./modules/util/gate.js",
        "position": {
          "left": 90,
          "top": 400
        }
      },
      "inputs": {
        "thru": {
          "accepts": "any"
        }
      },
      "outputs": {
        "out": {
          "emits": "any",
          "calls": [
            {
              "parentId": "Button-3",
              "key": "thru"
            }
          ]
        }
      },
      "state": {
        "message": "open"
      },
      "ui": {
        "openButton": {
          "type": "button",
          "clientPath": "ui/uiButton.js"
        }
      }
    },
    "logger-6": {
      "description": {
        "name": "logger",
        "alt": "in ... out to console",
        "id": "logger-6",
        "path": "./modules/util/log.js",
        "position": {
          "left": 1318,
          "top": -170
        }
      },
      "inputs": {
        "thru": {
          "accepts": "any"
        }
      },
      "outputs": {
        "throughput": {
          "emits": "any",
          "calls": []
        }
      },
      "state": {
        "prefix": "JTN1:",
        "message": "6.026243525208741"
      },
      "ui": {}
    },
    "ThreeJS-Canvas-7": {
      "description": {
        "name": "ThreeJS-Canvas",
        "alt": "graphix",
        "id": "ThreeJS-Canvas-7",
        "path": "./modules/ui/threeCanvas.js",
        "position": {
          "left": 1312,
          "top": 133
        }
      },
      "inputs": {
        "xy1": {
          "accepts": "array"
        },
        "xy2": {
          "accepts": "array"
        }
      },
      "outputs": {},
      "state": {},
      "ui": {
        "threeCanvas": {
          "type": "threeCanvas",
          "clientPath": "ui/threeCanvas.js",
          "libPath": "ui/libs/three.js"
        }
      }
    },
    "collector-8": {
      "description": {
        "name": "collector",
        "alt": "collect and dump",
        "id": "collector-8",
        "path": "./modules/util/collector.js",
        "position": {
          "left": 1629,
          "top": 954
        }
      },
      "inputs": {
        "collect": {
          "accepts": "any"
        },
        "dump": {
          "accepts": "evt"
        }
      },
      "outputs": {
        "pass": {
          "emits": "any",
          "calls": [
            {
              "parentId": "leastSquares Parser-16",
              "key": "thetas"
            }
          ]
        }
      },
      "state": {
        "count": 0,
        "dumpOnGo": true
      },
      "ui": {
        "onDumpButton": {
          "type": "button",
          "clientPath": "ui/uiButton.js"
        }
      }
    },
    "gateCounter-9": {
      "description": {
        "name": "gateCounter",
        "alt": "in ... out",
        "id": "gateCounter-9",
        "path": "./modules/util/gateCounter.js",
        "position": {
          "left": 723,
          "top": 994
        }
      },
      "inputs": {
        "thru": {
          "accepts": "any"
        },
        "setCount": {
          "accepts": "number"
        },
        "addEvent": {
          "accepts": "any"
        }
      },
      "outputs": {
        "out": {
          "emits": "any",
          "calls": [
            {
              "parentId": "parallelContencator-11",
              "key": "in0"
            }
          ]
        }
      },
      "state": {
        "addThis": 1,
        "count": 0
      },
      "ui": {
        "openButton": {
          "type": "button",
          "clientPath": "ui/uiButton.js"
        }
      }
    },
    "parallelContencator-11": {
      "description": {
        "name": "parallelContencator",
        "alt": "inputs -> arrays",
        "id": "parallelContencator-11",
        "path": "./modules/util/parallelContencator.js",
        "position": {
          "left": 1192,
          "top": 969
        }
      },
      "inputs": {
        "in0": {
          "accepts": "any"
        },
        "in1": {
          "accepts": "any"
        },
        "push": {
          "accepts": "evt"
        }
      },
      "outputs": {
        "out": {
          "emits": "array",
          "calls": [
            {
              "parentId": "collector-8",
              "key": "collect"
            }
          ]
        }
      },
      "state": {
        "gateKeep": true
      },
      "ui": {
        "onOutputButton": {
          "type": "button",
          "clientPath": "ui/uiButton.js"
        }
      }
    },
    "gateCounter-12": {
      "description": {
        "name": "gateCounter",
        "alt": "in ... out",
        "id": "gateCounter-12",
        "path": "./modules/util/gateCounter.js",
        "position": {
          "left": 724,
          "top": 1187
        }
      },
      "inputs": {
        "thru": {
          "accepts": "any"
        },
        "setCount": {
          "accepts": "number"
        },
        "addEvent": {
          "accepts": "any"
        }
      },
      "outputs": {
        "out": {
          "emits": "any",
          "calls": [
            {
              "parentId": "parallelContencator-11",
              "key": "in1"
            }
          ]
        }
      },
      "state": {
        "addThis": 1,
        "count": 0
      },
      "ui": {
        "openButton": {
          "type": "button",
          "clientPath": "ui/uiButton.js"
        }
      }
    },
    "number-output-13": {
      "description": {
        "name": "number-output",
        "alt": "for clicking",
        "id": "number-output-13",
        "path": "./modules/util/number.js",
        "position": {
          "left": 177,
          "top": 1028
        }
      },
      "inputs": {
        "thru": {
          "accepts": "any"
        },
        "evt": {
          "accepts": "any"
        }
      },
      "outputs": {
        "out": {
          "emits": "number",
          "calls": [
            {
              "parentId": "gateCounter-9",
              "key": "setCount"
            },
            {
              "parentId": "gateCounter-12",
              "key": "setCount"
            }
          ]
        }
      },
      "state": {
        "number": 1
      },
      "ui": {
        "onNumberButton": {
          "type": "button",
          "clientPath": "ui/uiButton.js"
        }
      }
    },
    "logger-14": {
      "description": {
        "name": "logger",
        "alt": "in ... out to console",
        "id": "logger-14",
        "path": "./modules/util/log.js",
        "position": {
          "left": 1319,
          "top": -44
        }
      },
      "inputs": {
        "thru": {
          "accepts": "any"
        }
      },
      "outputs": {
        "throughput": {
          "emits": "any",
          "calls": []
        }
      },
      "state": {
        "prefix": "JTN2:",
        "message": "0.28148547457701517"
      },
      "ui": {}
    },
    "forwardTransform Parser-15": {
      "description": {
        "name": "forwardTransform Parser",
        "alt": "line of forwardTransform -> points",
        "id": "forwardTransform Parser-15",
        "path": "./modules/robot/forwardTransform.js",
        "position": {
          "left": 1208,
          "top": 678
        }
      },
      "inputs": {
        "theta1": {
          "accepts": "any"
        },
        "theta2": {
          "accepts": "any"
        },
        "l1": {
          "accepts": "any"
        },
        "l2": {
          "accepts": "any"
        }
      },
      "outputs": {
        "originpt": {
          "emits": "array",
          "calls": []
        },
        "jointpt": {
          "emits": "array",
          "calls": [
            {
              "parentId": "ThreeJS-Canvas-7",
              "key": "xy1"
            }
          ]
        },
        "touchpt": {
          "emits": "array",
          "calls": [
            {
              "parentId": "ThreeJS-Canvas-7",
              "key": "xy2"
            }
          ]
        }
      },
      "state": {
        "l1": 0.4,
        "l2": 0.2
      },
      "ui": {}
    },
    "leastSquares Parser-16": {
      "description": {
        "name": "leastSquares Parser",
        "alt": "line of leastSquares -> l1 and l2 values",
        "id": "leastSquares Parser-16",
        "path": "./modules/robot/leastSquares.js",
        "position": {
          "left": 1648,
          "top": 793
        }
      },
      "inputs": {
        "thetas": {
          "accepts": "any"
        }
      },
      "outputs": {
        "l1": {
          "emits": "num",
          "calls": [
            {
              "parentId": "forwardTransform Parser-15",
              "key": "l1"
            }
          ]
        },
        "l2": {
          "emits": "num",
          "calls": [
            {
              "parentId": "forwardTransform Parser-15",
              "key": "l2"
            }
          ]
        }
      },
      "state": {
        "c": 0,
        "d": -0.113
      },
      "ui": {}
    }
  }
}